module bitbucket.org/mohishnemade/dbgui_v1

go 1.12

require (
	github.com/badoux/checkmail v0.0.0-20200623144435-f9f80cb795fa
	github.com/dgrijalva/jwt-go v3.2.0+incompatible
	github.com/gorilla/mux v1.7.4
	github.com/jasonlvhit/gocron v0.0.1
	github.com/jinzhu/gorm v1.9.14
	github.com/joho/godotenv v1.3.0
	golang.org/x/crypto v0.0.0-20200622213623-75b288015ac9
	gopkg.in/go-playground/assert.v1 v1.2.1
)
